module gitlab.com/peat-psuwit/docker-exec-in-service-instance

go 1.13

require (
	github.com/Azure/go-ansiterm v0.0.0-20170929234023-d6e3b3328b78 // indirect
	github.com/Microsoft/go-winio v0.4.14 // indirect
	github.com/Nvveen/Gotty v0.0.0-20120604004816-cd527374f1e5 // indirect
	github.com/docker/distribution v2.7.1+incompatible // indirect
	github.com/docker/docker v1.13.1
	github.com/docker/go-connections v0.4.0 // indirect
	github.com/docker/go-units v0.4.0 // indirect
	github.com/gogo/protobuf v1.3.0 // indirect
	github.com/google/go-cmp v0.3.1 // indirect
	github.com/gorilla/mux v1.7.3 // indirect
	github.com/opencontainers/go-digest v1.0.0-rc1 // indirect
	github.com/opencontainers/image-spec v1.0.1 // indirect
	github.com/sirupsen/logrus v1.4.2 // indirect
	golang.org/x/net v0.0.0-20191003171128-d98b1b443823 // indirect
	golang.org/x/sys v0.0.0-20191003212358-c178f38b412c // indirect
	golang.org/x/time v0.0.0-20190921001708-c4c64cad1fd0 // indirect
	google.golang.org/grpc v1.24.0 // indirect
	gotest.tools v2.2.0+incompatible // indirect
)

replace github.com/docker/docker v1.13.1 => github.com/docker/engine v1.4.2-0.20190219214528-cbe11bdc6da8
